
  ___   __  __   ___   _       ___   __   __  ___   ___         _     ____
 | __| |  \/  | | _ \ | |     / _ \  \ \ / / | __| | __|       /_\   |_  /
 | _|  | |\/| | |  _/ | |__  | (_) |  \ V /  | _|  | _|   _   / _ \   / /
 |___| |_|  |_| |_|   |____|  \___/    |_|   |___| |___| (_) /_/ \_\ /___|
